{
    "workbench.colorTheme": "Monokai Dimmed",
    "editor.fontFamily": "Fira Code",
    "editor.fontSize": 16,
    "debug.console.fontSize": 16,
    "terminal.integrated.fontSize": 16,
    "workbench.startupEditor": "none"
}